<?xml version="1.0" encoding="utf-8"?>
<!-- Generator: Adobe Illustrator 19.0.1, SVG Export Plug-In . SVG Version: 6.00 Build 0)  -->
<svg version="1.1" id="Layer_1" xmlns="http://www.w3.org/2000/svg" xmlns:xlink="http://www.w3.org/1999/xlink" x="0px" y="0px"
	 width="621.3px" height="112.3px" viewBox="0 0 621.3 112.3" style="enable-background:new 0 0 621.3 112.3;" xml:space="preserve"
	>
<style type="text/css">
	.st0{fill:#1A1A1A;}
	.st1{fill:url(#SVGID_1_);}
</style>
<g>
	<g>
		<g>
			<path class="st0" d="M190.5,47.2c-4.8-5.1-11.3-7.8-19.2-7.8c-5.6,0-10.7,1.4-15,4.2c-3.5,2.3-6.2,5.3-8,9.1V40.6h-15.2V109h15.2
				V72.7c0-6.6,1.6-11.7,4.8-15.1c3.2-3.4,7.5-5.1,12.8-5.1c5.2,0,9.3,1.6,12.2,4.7c3,3.2,4.5,7.7,4.5,13.5V109h15.2V69.2
				C197.8,59.8,195.3,52.4,190.5,47.2L190.5,47.2z"/>
			<path class="st0" d="M271.9,77.6c0.3-1.7,0.5-3.8,0.5-6.1c0-5.9-1.4-11.4-4-16.2c-2.7-4.8-6.6-8.7-11.6-11.5
				c-5-2.8-10.9-4.2-17.6-4.2c-6.6,0-12.5,1.4-17.6,4.2c-5.1,2.8-9.1,6.9-12,12.2c-2.9,5.3-4.3,11.5-4.3,18.6
				c0,7.1,1.5,13.4,4.3,18.7c2.9,5.3,6.9,9.4,12,12.2c5.1,2.8,11,4.2,17.6,4.2c5.7,0,10.9-1.1,15.5-3.2c4.6-2.1,8.4-5.1,11.3-8.8
				c2.9-3.7,4.8-8,5.7-12.8l0.1-0.8h-16.2l-0.1,0.5c-0.7,3.7-2.6,6.7-5.7,9c-3.1,2.3-6.9,3.4-11.4,3.4c-5.1,0-9.4-1.6-12.9-4.8
				c-3.3-3.1-5.2-7.9-5.5-14.3h51.5L271.9,77.6z M226,56.9c3.5-3.2,8-4.8,13.2-4.8c3.3,0,6.4,0.7,9.2,2.1c2.8,1.4,5,3.5,6.6,6.3
				c1.2,2.2,1.9,4.9,2.1,7.9h-36.6C221.2,63.5,223.1,59.6,226,56.9z"/>
			<path class="st0" d="M335.1,53.7c-1.9-3.8-4.6-6.9-8.1-9.4c-4.4-3.1-9.8-4.6-16-4.6c-5.9,0-11.3,1.4-16,4.2
				c-4.7,2.8-8.4,6.9-11,12.2c-2.6,5.3-4,11.5-4,18.6c0,7.1,1.3,13.4,4,18.7c2.6,5.3,6.3,9.4,11,12.2c4.7,2.8,10,4.2,16,4.2
				c6.2,0,11.6-1.6,16-4.6c3.5-2.5,6.3-5.6,8.1-9.4V109h15.2V40.6h-15.2V53.7z M332.5,86.1c-1.7,3.2-4.1,5.7-7.1,7.5
				c-3,1.8-6.4,2.7-10.2,2.7c-6,0-10.8-1.9-14.3-5.7c-3.6-3.8-5.4-9.1-5.4-15.8c0-6.7,1.8-12,5.4-15.8c3.6-3.8,8.4-5.7,14.3-5.7
				c3.8,0,7.2,0.9,10.2,2.7c3,1.8,5.3,4.3,7.1,7.6c1.7,3.3,2.6,7.1,2.6,11.3C335.1,79.1,334.2,82.9,332.5,86.1z"/>
			<rect x="404.7" y="23.9" class="st0" width="15.2" height="85.1"/>
			<path class="st0" d="M494.1,78.2l0.1-0.5c0.3-1.7,0.5-3.8,0.5-6.1c0-5.9-1.4-11.4-4-16.2c-2.7-4.8-6.6-8.7-11.6-11.5
				c-5-2.8-10.9-4.2-17.6-4.2c-6.6,0-12.5,1.4-17.6,4.2c-5.1,2.8-9.1,6.9-12,12.2c-2.9,5.3-4.3,11.5-4.3,18.6
				c0,7.1,1.5,13.4,4.3,18.7c2.9,5.3,6.9,9.4,12,12.2c5.1,2.8,11,4.2,17.6,4.2c5.7,0,10.9-1.1,15.5-3.2c4.6-2.1,8.4-5.1,11.3-8.8
				c2.9-3.7,4.8-8,5.7-12.8l0.1-0.8h-16.2l-0.1,0.5c-0.7,3.7-2.6,6.7-5.7,9c-3.1,2.3-6.9,3.4-11.4,3.4c-5.1,0-9.4-1.6-12.9-4.8
				c-3.3-3.1-5.2-7.9-5.5-14.3H494.1z M448.3,56.9c3.5-3.2,8-4.8,13.2-4.8c3.3,0,6.4,0.7,9.2,2.1c2.8,1.4,5,3.5,6.6,6.3
				c1.2,2.2,1.9,4.9,2.1,7.9h-36.6C443.5,63.5,445.4,59.6,448.3,56.9z"/>
			<path class="st0" d="M557.4,53.7c-1.9-3.8-4.6-6.9-8.1-9.4c-4.4-3.1-9.8-4.6-16-4.6c-5.9,0-11.3,1.4-16,4.2
				c-4.7,2.8-8.4,6.9-11,12.2c-2.6,5.3-4,11.5-4,18.6c0,7.1,1.3,13.4,4,18.7c2.6,5.3,6.3,9.4,11,12.2c4.7,2.8,10,4.2,16,4.2
				c6.2,0,11.6-1.6,16-4.6c3.5-2.5,6.3-5.6,8.1-9.4V109h15.2V40.6h-15.2V53.7z M554.8,86.1c-1.7,3.2-4.1,5.7-7.1,7.5
				c-3,1.8-6.4,2.7-10.2,2.7c-6,0-10.8-1.9-14.3-5.7c-3.6-3.8-5.4-9.1-5.4-15.8c0-6.7,1.8-12,5.4-15.8c3.6-3.8,8.4-5.7,14.3-5.7
				c3.8,0,7.2,0.9,10.2,2.7c3,1.8,5.3,4.3,7.1,7.6c1.7,3.3,2.6,7.1,2.6,11.3C557.4,79.1,556.5,82.9,554.8,86.1z"/>
			<path class="st0" d="M618.6,28.4l0.7,0V15l-0.6,0c-9.7-0.5-17.1,1.4-22,5.6c-4.9,4.2-7.4,10.6-7.4,18.9v1.1h-9.1v13.2h9.1V109
				h15.3V53.8h14.7V40.6h-14.7c0-4.6,1-7.8,3.1-9.7C609.7,29,613.4,28.2,618.6,28.4z"/>
			<polygon class="st0" points="382.7,23.9 367.5,23.9 367.5,40.6 357.8,40.6 357.8,53.7 367.5,53.7 367.5,109 382.7,109
				382.7,53.7 397,53.7 397,40.6 382.7,40.6 			"/>
		</g>
	</g>
	<linearGradient id="SVGID_1_" gradientUnits="userSpaceOnUse" x1="3.5339" y1="2.9882" x2="118.1993" y2="117.6535">
		<stop  offset="9.768583e-002" style="stop-color:#0B6CA6"/>
		<stop  offset="1" style="stop-color:#20B78C"/>
	</linearGradient>
	<path class="st1" d="M72.9,94.3c10,10,23.4,15.5,37.5,15.5V61.6c0-32.5-26.3-58.8-58.8-58.8H37.2h-3.9c0,0,6.9,0.8,16.2,10.1
		c0,0,0,0,0,0l40.6,40.6c2.7,2.7,4.2,6.3,4.2,10v8.1L40.9,18.4C30.9,8.4,17.4,2.8,3.4,2.8V51c0,32.5,26.3,58.8,58.8,58.8h14.4h3.9
		c0,0-6.9-0.8-16.2-10.1c0,0,0,0,0,0L23.6,59.1c-2.7-2.7-4.2-6.3-4.2-10v-8.1L72.9,94.3z"/>
</g>
</svg>
